{
  "db_name": "SQLite",
  "query": "SELECT count(*) FROM changes WHERE token = $1",
  "describe": {
    "columns": [
      {
        "name": "count(*)",
        "ordinal": 0,
        "type_info": "Int"
      }
    ],
    "parameters": {
      "Right": 1
    },
    "nullable": [
      false
    ]
  },
  "hash": "e53d7d2b58f710b5dd09944e53dcd650fd922fd836a44c0198edea6ea31d6dd5"
}
