{
  "db_name": "SQLite",
  "query": "SELECT count(*) FROM logdata JOIN sensor USING(s_id) WHERE logdata.status = 'NONE' AND sensor.name LIKE 'modio.%';",
  "describe": {
    "columns": [
      {
        "name": "count(*)",
        "ordinal": 0,
        "type_info": "Int"
      }
    ],
    "parameters": {
      "Right": 0
    },
    "nullable": [
      false
    ]
  },
  "hash": "5b7dc4f2f2a2095c1c7c03ddf8bdc6ab3d8c2901c1ee5344c3ad7190b3c3c609"
}
