{
  "db_name": "SQLite",
  "query": "UPDATE changes SET status = 'FAILED' WHERE status = 'PENDING'",
  "describe": {
    "columns": [],
    "parameters": {
      "Right": 0
    },
    "nullable": []
  },
  "hash": "ffe9f2c920d6369c6838c07f3fc14fd4e90fcff2f98c75bc070caf622166df38"
}
