{
  "db_name": "SQLite",
  "query": "UPDATE logdata SET time = time + $1, status = 'NONE' WHERE status = 'TIMEFAIL'",
  "describe": {
    "columns": [],
    "parameters": {
      "Right": 1
    },
    "nullable": []
  },
  "hash": "66c99c1ade25dad7545f9f43b8f62f9b7e129ebfc9b0ae7666340d73e7432920"
}
