{
  "db_name": "SQLite",
  "query": "WITH victims AS ( SELECT t_id, s_id, ROW_NUMBER() OVER (PARTITION BY s_id ORDER BY t_id DESC) AS row FROM changes WHERE changes.status='NONE') UPDATE changes SET status='FAILED' WHERE t_id IN (SELECT t_id FROM victims WHERE victims.row >= 17);",
  "describe": {
    "columns": [],
    "parameters": {
      "Right": 0
    },
    "nullable": []
  },
  "hash": "b5d0679c7bcdc31813dc955528f569066b1a1bb4ceab5a0551004e4d406a4227"
}
