{
  "db_name": "SQLite",
  "query": "SELECT name as \"name!\", value as \"value!\", MAX(time) as \"time!: f64\" FROM logdata JOIN sensor USING(s_id) GROUP BY name ORDER BY time ASC",
  "describe": {
    "columns": [
      {
        "name": "name!",
        "ordinal": 0,
        "type_info": "Text"
      },
      {
        "name": "value!",
        "ordinal": 1,
        "type_info": "Text"
      },
      {
        "name": "time!: f64",
        "ordinal": 2,
        "type_info": "Int64"
      }
    ],
    "parameters": {
      "Right": 0
    },
    "nullable": [
      true,
      true,
      false
    ]
  },
  "hash": "7fd3c68515e90cbd2747297177457eaa3aadec2efde12f4c45a795c20de0c20c"
}
