{
  "db_name": "SQLite",
  "query": "INSERT INTO changes(s_id, token, expected, target) SELECT s_id, $2, $3, $4 FROM sensor WHERE sensor.name = $1",
  "describe": {
    "columns": [],
    "parameters": {
      "Right": 4
    },
    "nullable": []
  },
  "hash": "0f51e47840538b49f5cbf640050f879ba9e71ea2723ccc2ed39a022449c84f4b"
}
